[
    {
        "ImgPath": "Up.png",
        "Edges": [
            1,
            1,
            0,
            1
        ]
    },
    {
        "ImgPath": "Right.png",
        "Edges": [
            1,
            1,
            1,
            0
        ]
    },
    {
        "ImgPath": "Down.png",
        "Edges": [
            0,
            1,
            1,
            1
        ]
    },
    {
        "ImgPath": "Left.png",
        "Edges": [
            1,
            0,
            1,
            1
        ]
    }
]